#  ==========================================================================
#  
#  Wavefront OBJ format exported by Red-i Productions' "Riptide Pro"
#     (a commercial plugin for Cinema 4D PC & Mac, R9.6 or later)
#  
#  Red-i Productions
#  http://skinprops.com
#  
#  ==========================================================================
o gray
v -8 -4 12
v -8 2 12
v 8 2 12
v 8 -4 12
v 8 -4 7
v 8 3 7
v 8 3 -7
v 8 -4 -7
v 8 -4 -12
v 8 2 -12
v -8 2 -12
v -8 -4 -12
v -8 -4 -8
v -8 4 -8
v -8 4 8
v -8 -4 8
v -8 4 8
v -8 4 -8
v 8 4 -8
v 8 4 8
v -8 -4 -8
v -8 -4 8
v 8 -4 8
v 8 -4 -8
v 8 4 -8
v 8 3 -7
v 8 3 7
v 8 4 8
v -8 -4 8
v -8 -4 12
v 8 -4 12
v 8 -4 8
v 8 -4 8
v 8 -4 12
v 8 2 12
v 8 4 8
v 8 4 8
v 8 2 12
v -8 2 12
v -8 4 8
v -8 4 8
v -8 2 12
v -8 -4 12
v -8 -4 8
v 8 -4 -8
v 8 -4 -12
v -8 -4 -12
v -8 -4 -8
v -8 -4 -8
v -8 -4 -12
v -8 2 -12
v -8 4 -8
v -8 4 -8
v -8 2 -12
v 8 2 -12
v 8 4 -8
v 8 4 -8
v 8 2 -12
v 8 -4 -12
v 8 -4 -8
v 8 4 8
v 8 3 7
v 8 -4 7
v 8 -4 8
v 8 -4 -8
v 8 -4 -7
v 8 3 -7
v 8 4 -8
# 68 vertices

vn 0 0 1
vn 0 0 1
vn 0 0 1
vn 1 0 -0
vn 1 0 -0
vn 1 0 -0
vn 0 0 -1
vn 0 0 -1
vn 0 0 -1
vn -1 0 -0
vn -1 0 -0
vn -1 0 -0
vn 0 1 -0
vn 0 1 -0
vn 0 1 -0
vn 1 0 -0
vn 1 0 -0
vn 1 0 -0
vn 0 -1 -0
vn 0 -1 -0
vn 0 -1 -0
vn 1 0 -0
vn 1 0 -0
vn 1 0 -0
vn 0 0.894427 0.447214
vn 0 0.894427 0.447214
vn 0 0.894427 0.447214
vn -1 0 -0
vn -1 0 -0
vn -1 0 -0
vn 0 -1 -0
vn 0 -1 -0
vn 0 -1 -0
vn -1 0 -0
vn -1 0 -0
vn -1 0 -0
vn 0 0.894427 -0.447214
vn 0 0.894427 -0.447214
vn 0 0.894427 -0.447214
vn 1 0 -0
vn 1 0 -0
vn 1 0 -0
vn 1 0 -0
vn 1 0 -0
vn 1 0 -0
vn 0 0 1
vn 0 0 1
vn 0 0 1
vn 1 0 -0
vn 1 0 -0
vn 1 0 -0
vn 0 0 -1
vn 0 0 -1
vn 0 0 -1
vn -1 0 -0
vn -1 0 -0
vn -1 0 -0
vn 0 1 -0
vn 0 1 -0
vn 0 1 -0
vn 1 0 -0
vn 1 0 -0
vn 1 0 -0
vn 0 -1 -0
vn 0 -1 -0
vn 0 -1 -0
vn 1 0 -0
vn 1 0 -0
vn 1 0 -0
vn 0 0.894427 0.447214
vn 0 0.894427 0.447214
vn 0 0.894427 0.447214
vn -1 0 -0
vn -1 0 -0
vn -1 0 -0
vn 0 -1 -0
vn 0 -1 -0
vn 0 -1 -0
vn -1 0 -0
vn -1 0 -0
vn -1 0 -0
vn 0 0.894427 -0.447214
vn 0 0.894427 -0.447214
vn 0 0.894427 -0.447214
vn 1 0 -0
vn 1 0 -0
vn 1 0 -0
vn 1 0 -0
vn 1 0 -0
vn 1 0 -0
# 90 vertex normals

f 3//3 2//2 1//1
f 67//6 66//5 65//4
f 11//9 10//8 9//7
f 15//12 14//11 13//10
f 19//15 18//14 17//13
f 27//18 26//17 25//16
f 31//21 30//20 29//19
f 35//24 34//23 33//22
f 39//27 38//26 37//25
f 43//30 42//29 41//28
f 47//33 46//32 45//31
f 51//36 50//35 49//34
f 55//39 54//38 53//37
f 59//42 58//41 57//40
f 63//45 62//44 61//43
f 4//48 3//47 1//46
f 68//51 67//50 65//49
f 12//54 11//53 9//52
f 16//57 15//56 13//55
f 20//60 19//59 17//58
f 28//63 27//62 25//61
f 32//66 31//65 29//64
f 36//69 35//68 33//67
f 40//72 39//71 37//70
f 44//75 43//74 41//73
f 48//78 47//77 45//76
f 52//81 51//80 49//79
f 56//84 55//83 53//82
f 60//87 59//86 57//85
f 64//90 63//89 61//88
# 30 facets

o black
v 8 -4 7
v 8 3 7
v 8 3 -7
v 8 -4 -7
# 4 vertices

vn 1 0 -0
vn 1 0 -0
vn 1 0 -0
vn 1 0 -0
vn 1 0 -0
vn 1 0 -0
# 6 vertex normals

f 71//93 70//92 69//91
f 72//96 71//95 69//94
# 2 facets

